央视,#genre#
CCTV1,http://[2409:8087:2001:20:2800:0:df6e:eb07]/wh7f454c46tw3252572940_-481357165/ott.mobaibox.com/PLTV/3/224/3221227467/index.m3u8?icpid=3&RTS=1668593752&from=40&ocs=2_2409:8087:2001:20:2800:0:df6e:eb0a_80&popid=40&hms_devid=2036&prioritypopid=40&vqe=3
CCTV2,http://[2409:8087:2001:20:2800:0:df6e:eb12]/wh7f454c46tw3589111099_-1793408755/ott.mobaibox.com/PLTV/3/224/3221227543/index.m3u8?icpid=3&RTS=1668594088&from=40&popid=40&hms_devid=2112&prioritypopid=40&vqe=3
CCTV3,http://[2409:8087:2001:20:2800:0:df6e:eb18]/wh7f454c46tw3746132328_-1754088424/ott.mobaibox.com/PLTV/3/224/3221228126/index.m3u8?icpid=3&RTS=1668594245&from=40&popid=40&hms_devid=2113&prioritypopid=40&vqe=3
CCTV4,http://[2409:8087:2001:20:2800:0:df6e:eb12]/wh7f454c46tw3772680253_-1555628407/ott.mobaibox.com/PLTV/3/224/3221227549/index.m3u8?icpid=3&RTS=1668594272&from=40&popid=40&hms_devid=2112&prioritypopid=40&vqe=3
CCTV5,http://[2409:8087:2001:20:2800:0:df6e:eb15]/wh7f454c46tw3847208563_882248521/ott.mobaibox.com/PLTV/3/224/3221228179/index.m3u8?icpid=3&RTS=1668594346&from=40&popid=40&hms_devid=2115&prioritypopid=40&vqe=3
CCTV5+,http://[2409:8087:2001:20:2800:0:df6e:eb26]/ott.mobaibox.com/PLTV/1/224/3221228277/index.m3u8
CCTV6,http://[2409:8087:2001:20:2800:0:df6e:eb13]/wh7f454c46tw3940641123_459833286/ott.mobaibox.com/PLTV/3/224/3221227505/index.m3u8?icpid=3&RTS=1668594440&from=40&popid=40&hms_devid=2112&prioritypopid=40&vqe=3
CCTV7,http://[2409:8087:2001:20:2800:0:df6e:eb26]/wh7f454c46tw3984282630_1427246842/ott.mobaibox.com/PLTV/3/224/3221228283/index.m3u8?icpid=3&RTS=1668594483&from=40&popid=40&hms_devid=2293&prioritypopid=40&vqe=3
CCTV8,http://[2409:8087:2001:20:2800:0:df6e:eb12]/wh7f454c46tw4086984004_1136880123/ott.mobaibox.com/PLTV/3/224/3221227473/index.m3u8?icpid=3&RTS=1668594586&from=40&popid=40&hms_devid=2112&prioritypopid=40&vqe=3
CCTV9,http://[2409:8087:2001:20:2800:0:df6e:eb21]/wh7f454c46tw4254168827_1850088835/ott.mobaibox.com/PLTV/3/224/3221228303/index.m3u8?icpid=3&RTS=1668594753&from=40&popid=40&hms_devid=2290&prioritypopid=40&vqe=3
CCTV10,http://[2409:8087:2001:20:2800:0:df6e:eb21]/wh7f454c46tw30319478_-185824076/ott.mobaibox.com/PLTV/3/224/3221228286/index.m3u8?icpid=3&RTS=1668594824&from=40&popid=40&hms_devid=2290&prioritypopid=40&vqe=3
CCTV11,http://[2409:8087:2001:20:2800:0:df6e:eb23]/wh7f454c46tw105619488_1866436632/ott.mobaibox.com/PLTV/3/224/3221228289/index.m3u8?icpid=3&RTS=1668594900&from=40&popid=40&hms_devid=2291&prioritypopid=40&vqe=3
CCTV12,http://[2409:8087:2001:20:2800:0:df6e:eb23]/wh7f454c46tw185877003_-533945400/ott.mobaibox.com/PLTV/3/224/3221228401/index.m3u8?icpid=3&RTS=1668594980&from=40&popid=40&hms_devid=2291&prioritypopid=40&vqe=3
CCTV13,http://[2409:8087:2001:20:2800:0:df6e:eb16]/wh7f454c46tw259647455_-1559913959/ott.mobaibox.com/PLTV/3/224/3221228224/index.m3u8?icpid=3&RTS=1668595054&from=40&popid=40&hms_devid=2114&prioritypopid=40&vqe=3
CCTV14,http://[2409:8087:2001:20:2800:0:df6e:eb22]/wh7f454c46tw340147088_1594094424/ott.mobaibox.com/PLTV/3/224/3221228292/index.m3u8?icpid=3&RTS=1668595134&from=40&popid=40&hms_devid=2291&prioritypopid=40&vqe=3
CCTV15,http://[2409:8087:2001:20:2800:0:df6e:eb22]/wh7f454c46tw434828587_188325560/ott.mobaibox.com/PLTV/3/224/3221228404/index.m3u8?icpid=3&RTS=1668595229&from=40&popid=40&hms_devid=2291&prioritypopid=40&vqe=3
CCTV16,http://[2409:8087:2001:20:2800:0:df6e:eb0b]/wh7f454c46tw456909575_2098882473/ott.mobaibox.com/PLTV/3/224/3221228144/index.m3u8?icpid=3&RTS=1668595251&from=40&popid=40&hms_devid=2038&prioritypopid=40&vqe=3
CCTV17,http://[2409:8087:2001:20:2800:0:df6e:eb23]/wh7f454c46tw483903016_-67353299/ott.mobaibox.com/PLTV/3/224/3221228407/index.m3u8?icpid=3&RTS=1668595278&from=40&popid=40&hms_devid=2291&prioritypopid=40&vqe=3
CCTV1,http://[2409:8087:3869:8021:1001::e5]:6610/PLTV/88888888/224/3221225618/2/index.m3u8
CCTV1,http://[2409:8087:3869:8021:1001::e5]:6610/PLTV/88888888/224/3221225630/2/index.m3u8
CCTV1,http://[2409:8087:3869:8021:1001::e5]:6610/PLTV/88888888/224/3221225501/2/index.m3u8
CCTV1,http://[2409:8087:3869:8021:1001::e5]:6610/PLTV/88888888/224/3221225642/2/index.m3u8
CCTV1,http://[2409:8087:3869:8021:1001::e5]:6610/PLTV/88888888/224/3221225762/2/index.m3u8
CCTV1,http://[2409:8087:3869:8021:1001::e5]:6610/PLTV/88888888/224/3221225918/2/index.m3u8
CCTV2,http://[2409:8087:3869:8021:1001::e5]:6610/PLTV/88888888/224/3221225619/2/index.m3u8
CCTV2,http://[2409:8087:3869:8021:1001::e5]:6610/PLTV/88888888/224/3221225643/2/index.m3u8
CCTV2,http://[2409:8087:3869:8021:1001::e5]:6610/PLTV/88888888/224/3221225500/2/index.m3u8
CCTV3,http://[2409:8087:3869:8021:1001::e5]:6610/PLTV/88888888/224/3221225634/2/index.m3u8
CCTV3,http://[2409:8087:3869:8021:1001::e5]:6610/PLTV/88888888/224/3221225647/2/index.m3u8
CCTV4,http://[2409:8087:3869:8021:1001::e5]:6610/PLTV/88888888/224/3221225621/2/index.m3u8
CCTV5,http://[2409:8087:3869:8021:1001::e5]:6610/PLTV/88888888/224/3221225633/2/index.m3u8
CCTV5,http://[2409:8087:3869:8021:1001::e5]:6610/PLTV/88888888/224/3221225751/2/index.m3u8
CCTV5,http://[2409:8087:3869:8021:1001::e5]:6610/PLTV/88888888/224/3221225752/2/index.m3u8
CCTV5,http://[2409:8087:3869:8021:1001::e5]:6610/PLTV/88888888/224/3221225753/2/index.m3u8
CCTV5,http://[2409:8087:3869:8021:1001::e5]:6610/PLTV/88888888/224/3221225754/2/index.m3u8
CCTV5,http://[2409:8087:3869:8021:1001::e5]:6610/PLTV/88888888/224/3221225755/2/index.m3u8
CCTV5,http://[2409:8087:3869:8021:1001::e5]:6610/PLTV/88888888/224/3221225756/2/index.m3u8
CCTV5+,http://[2409:8087:3869:8021:1001::e5]:6610/PLTV/88888888/224/3221225649/2/index.m3u8
CCTV5+,http://[2409:8087:3869:8021:1001::e5]:6610/PLTV/88888888/224/3221225706/2/index.m3u8
CCTV6,http://[2409:8087:3869:8021:1001::e5]:6610/PLTV/88888888/224/3221225632/2/index.m3u8
CCTV6,http://[2409:8087:3869:8021:1001::e5]:6610/PLTV/88888888/224/3221225650/2/index.m3u8
CCTV7,http://[2409:8087:3869:8021:1001::e5]:6610/PLTV/88888888/224/3221225624/2/index.m3u8
CCTV7,http://[2409:8087:3869:8021:1001::e5]:6610/PLTV/88888888/224/3221225644/2/index.m3u8
CCTV7,http://[2409:8087:3869:8021:1001::e5]:6610/PLTV/88888888/224/3221225499/2/index.m3u8
CCTV8,http://[2409:8087:3869:8021:1001::e5]:6610/PLTV/88888888/224/3221225631/2/index.m3u8
CCTV8,http://[2409:8087:3869:8021:1001::e5]:6610/PLTV/88888888/224/3221225635/2/index.m3u8
CCTV9,http://[2409:8087:3869:8021:1001::e5]:6610/PLTV/88888888/224/3221225626/2/index.m3u8
CCTV9,http://[2409:8087:3869:8021:1001::e5]:6610/PLTV/88888888/224/3221225646/2/index.m3u8
CCTV10,http://[2409:8087:3869:8021:1001::e5]:6610/PLTV/88888888/224/3221225496/2/index.m3u8
CCTV10,http://[2409:8087:3869:8021:1001::e5]:6610/PLTV/88888888/224/3221225627/2/index.m3u8
CCTV10,http://[2409:8087:3869:8021:1001::e5]:6610/PLTV/88888888/224/3221225636/2/index.m3u8
CCTV11,http://[2409:8087:3869:8021:1001::e5]:6610/PLTV/88888888/224/3221225628/2/index.m3u8
CCTV12,http://[2409:8087:3869:8021:1001::e5]:6610/PLTV/88888888/224/3221225495/2/index.m3u8
CCTV12,http://[2409:8087:3869:8021:1001::e5]:6610/PLTV/88888888/224/3221225629/2/index.m3u8
CCTV12,http://[2409:8087:3869:8021:1001::e5]:6610/PLTV/88888888/224/3221225637/2/index.m3u8
CCTV13,http://[2409:8087:3869:8021:1001::e5]:6610/PLTV/88888888/224/3221225638/2/index.m3u8
CCTV14,http://[2409:8087:3869:8021:1001::e5]:6610/PLTV/88888888/224/3221225494/2/index.m3u8
CCTV14,http://[2409:8087:3869:8021:1001::e5]:6610/PLTV/88888888/224/3221225639/2/index.m3u8
CCTV14,http://[2409:8087:3869:8021:1001::e5]:6610/PLTV/88888888/224/3221225640/2/index.m3u8
CCTV15,http://[2409:8087:3869:8021:1001::e5]:6610/PLTV/88888888/224/3221225641/2/index.m3u8
CCTV16,http://[2409:8087:4400:20:1:a0f:11:9]/iptv.cdn.ha.chinamobile.com/PLTV/88888888/224/3221226597/index.m3u8
CCTV17,http://[2409:8087:3869:8021:1001::e5]:6610/PLTV/88888888/224/3221225907/2/index.m3u8
CCTV17,http://[2409:8087:3869:8021:1001::e5]:6610/PLTV/88888888/224/3221225908/2/index.m3u8
CCTV17,http://[2409:8087:3869:8021:1001::e5]:6610/PLTV/88888888/224/3221225909/2/index.m3u8
CCTV4K,http://[2409:8087:2001:20:2800:0:df6e:eb26]:80/ott.mobaibox.com/PLTV/3/224/3221228472/index.m3u8
CCTV4K,http://[2409:8087:3408:20:5040::106]:18890/PLTV/88888888/224/3221226998/index.m3u8
CCTV4K,http://[2409:8087:3428:20:500::100f]:6610/PLTV/88888888/224/3221226825/index.m3u8?servicetype=1&IASHttpSessionId=RR423820220409134714119178
CCTV4K,https://live.v1.mk/api/bestv.php?id=cctv4k/15000000
4KUHD,http://[2409:8087:3869:8021:1001::e5]:6610/PLTV/88888888/224/3221225786/2/index.m3u8
4KUHD,http://[2409:8087:3428:20:500::1009]:6610/PLTV/88888888/224/3221226825/index.m3u8?servicetype=1&IASHttpSessionId=RR423820220409134714119178
CCTV1,http://[2409:8087:1e03:21::42]:6610/cms001/ch00000090990000001022/index.m3u8?
CCTV2,http://[2409:8087:2001:20:2800:0:df6e:eb12]/wh7f454c46tw3589111099_-1793408755/ott.mobaibox.com/PLTV/3/224/3221227543/index.m3u8?icpid=3&RTS=1668594088&from=40&popid=40&hms_devid=2112&prioritypopid=40&vqe=3
CCTV3,http://[2409:8087:2001:20:2800:0:df6e:eb20]/ott.mobaibox.com/PLTV/4/224/3221228499/index.m3u8
CCTV4,http://[2409:8087:2001:20:2800:0:df6e:eb12]/wh7f454c46tw3772680253_-1555628407/ott.mobaibox.com/PLTV/3/224/3221227549/index.m3u8?icpid=3&RTS=1668594272&from=40&popid=40&hms_devid=2112&prioritypopid=40&vqe=3
CCTV5,http://[2409:8087:2001:20:2800:0:df6e:eb22]/ott.mobaibox.com/PLTV/4/224/3221228502/index.m3u8
CCTV5+,http://[2409:8087:2001:20:2800:0:df6e:eb26]/ott.mobaibox.com/PLTV/1/224/3221228277/index.m3u8
CCTV6,http://[2409:8087:2001:20:2800:0:df6e:eb22]/ott.mobaibox.com/PLTV/4/224/3221228516/index.m3u8
CCTV7,http://[2409:8087:2001:20:2800:0:df6e:eb26]/wh7f454c46tw3984282630_1427246842/ott.mobaibox.com/PLTV/3/224/3221228283/index.m3u8?icpid=3&RTS=1668594483&from=40&popid=40&hms_devid=2293&prioritypopid=40&vqe=3
CCTV8,http://[2409:8087:2001:20:2800:0:df6e:eb26]/ott.mobaibox.com/PLTV/4/224/3221228578/index.m3u8
CCTV9,http://[2409:8087:2001:20:2800:0:df6e:eb21]/wh7f454c46tw4254168827_1850088835/ott.mobaibox.com/PLTV/3/224/3221228303/index.m3u8?icpid=3&RTS=1668594753&from=40&popid=40&hms_devid=2290&prioritypopid=40&vqe=3
CCTV10,http://[2409:8087:2001:20:2800:0:df6e:eb21]/wh7f454c46tw30319478_-185824076/ott.mobaibox.com/PLTV/3/224/3221228286/index.m3u8?icpid=3&RTS=1668594824&from=40&popid=40&hms_devid=2290&prioritypopid=40&vqe=3
CCTV11,http://[2409:8087:2001:20:2800:0:df6e:eb23]/wh7f454c46tw105619488_1866436632/ott.mobaibox.com/PLTV/3/224/3221228289/index.m3u8?icpid=3&RTS=1668594900&from=40&popid=40&hms_devid=2291&prioritypopid=40&vqe=3
CCTV12,http://[2409:8087:2001:20:2800:0:df6e:eb23]/wh7f454c46tw185877003_-533945400/ott.mobaibox.com/PLTV/3/224/3221228401/index.m3u8?icpid=3&RTS=1668594980&from=40&popid=40&hms_devid=2291&prioritypopid=40&vqe=3
CCTV13,http://[2409:8087:2001:20:2800:0:df6e:eb16]/wh7f454c46tw259647455_-1559913959/ott.mobaibox.com/PLTV/3/224/3221228224/index.m3u8?icpid=3&RTS=1668595054&from=40&popid=40&hms_devid=2114&prioritypopid=40&vqe=3
CCTV14,http://[2409:8087:2001:20:2800:0:df6e:eb22]/wh7f454c46tw340147088_1594094424/ott.mobaibox.com/PLTV/3/224/3221228292/index.m3u8?icpid=3&RTS=1668595134&from=40&popid=40&hms_devid=2291&prioritypopid=40&vqe=3
CCTV15,http://[2409:8087:2001:20:2800:0:df6e:eb22]/wh7f454c46tw434828587_188325560/ott.mobaibox.com/PLTV/3/224/3221228404/index.m3u8?icpid=3&RTS=1668595229&from=40&popid=40&hms_devid=2291&prioritypopid=40&vqe=3
CCTV16,http://[2409:8087:2001:20:2800:0:df6e:eb18]/ott.mobaibox.com/PLTV/3/224/3221228127/index.m3u8
CCTV17,http://[2409:8087:2001:20:2800:0:df6e:eb23]/wh7f454c46tw483903016_-67353299/ott.mobaibox.com/PLTV/3/224/3221228407/index.m3u8?icpid=3&RTS=1668595278&from=40&popid=40&hms_devid=2291&prioritypopid=40&vqe=3
CCTV1,https://live.v1.mk/api/bestv.php?id=cctv1hd8m/8000000
CCTV2,https://live.v1.mk/api/bestv.php?id=cctv2hd8m/8000000
CCTV3,https://live.v1.mk/api/bestv.php?id=cctv38m/8000000
CCTV4,https://live.v1.mk/api/bestv.php?id=cctv4hd8m/8000000
CCTV5,https://live.v1.mk/api/bestv.php?id=cctv58m/8000000
CCTV5+,https://live.v1.mk/api/bestv.php?id=cctv5phd8m/8000000
CCTV6,https://live.v1.mk/api/bestv.php?id=cctv6hd8m/8000000
CCTV7,https://live.v1.mk/api/bestv.php?id=cctv7hd8m/8000000
CCTV8,https://live.v1.mk/api/bestv.php?id=cctv8hd8m/8000000
CCTV9,https://live.v1.mk/api/bestv.php?id=cctv9hd8m/8000000
CCTV10,https://live.v1.mk/api/bestv.php?id=cctv10hd8m/8000000
CCTV11,https://live.v1.mk/api/bestv.php?id=cctv11hd8m/8000000
CCTV12,https://live.v1.mk/api/bestv.php?id=cctv12hd8m/8000000
CCTV13,https://live.v1.mk/api/bestv.php?id=cctv13xwhd8m/8000000
CCTV14,https://live.v1.mk/api/bestv.php?id=cctvsehd8m/8000000
CCTV15,https://live.v1.mk/api/bestv.php?id=cctv15hd8m/8000000
CCTV16,https://live.v1.mk/api/bestv.php?id=cctv16hd4k/15000000
CCTV16,https://live.v1.mk/api/bestv.php?id=cctv16hd8m/8000000
CCTV17,https://live.v1.mk/api/bestv.php?id=cctv17hd8m/8000000
CCTV1,http://tvphp1.rbq.plus/migu.php?id=cctv1
CCTV2,http://tvphp1.rbq.plus/migu.php?id=cctv2
CCTV3,http://tvphp1.rbq.plus/migu.php?id=cctv3
CCTV4,http://tvphp1.rbq.plus/migu.php?id=cctv4
CCTV5,http://tvphp1.rbq.plus/migu.php?id=cctv5
CCTV6,http://tvphp1.rbq.plus/migu.php?id=cctv6
CCTV7,http://tvphp1.rbq.plus/migu.php?id=cctv7
CCTV8,http://tvphp1.rbq.plus/migu.php?id=cctv8
CCTV9,http://tvphp1.rbq.plus/migu.php?id=cctv9
CCTV10,http://tvphp1.rbq.plus/migu.php?id=cctv10
CCTV11,http://tvphp1.rbq.plus/migu.php?id=cctv11
CCTV12,http://tvphp1.rbq.plus/migu.php?id=cctv12
CCTV13,http://tvphp1.rbq.plus/migu.php?id=cctv13
CCTV14,http://tvphp1.rbq.plus/migu.php?id=cctv14
CCTV15,http://tvphp1.rbq.plus/migu.php?id=cctv15
CCTV17,http://tvphp1.rbq.plus/migu.php?id=cctv17
CCTV5+,http://tvphp1.rbq.plus/migu.php?id=cctv5p
CCTV1,http://[2409:8087:1e03:21::2]:6060/cms001/ch00000090990000001022/index.m3u8
CCTV2,http://[2409:8087:1e03:21::2]:6060/cms001/ch00000090990000001220/index.m3u8
CCTV3,http://[2409:8087:1e03:21::2]:6060/cms001/ch00000090990000001186/index.m3u8
CCTV4,http://[2409:8087:1e03:21::2]:6060/cms001/ch00000090990000001221/index.m3u8
CCTV5,http://[2409:8087:1e03:21::2]:6060/cms001/ch00000090990000001187/index.m3u8
CCTV5+,http://[2409:8087:7000:20:1000::22]:6060/yinhe/2/ch00000090990000001334/index.m3u8?virtualDomain=yinhe.live_hls.zte.com
CCTV6,http://[2409:8087:1e03:21::2]:6060/cms001/ch00000090990000001188/index.m3u8
CCTV7,http://[2409:8087:1e03:21::2]:6060/cms001/ch00000090990000001236/index.m3u8
CCTV8,http://[2409:8087:1e03:21::2]:6060/cms001/ch00000090990000001189/index.m3u8
CCTV9,http://[2409:8087:1e03:21::2]:6060/cms001/ch00000090990000001237/index.m3u8
CCTV10,http://[2409:8087:1e03:21::2]:6060/cms001/ch00000090990000001238/index.m3u8
CCTV11,http://[2409:8087:1e03:21::2]:6060/cms001/ch00000090990000001309/index.m3u8
CCTV12,http://[2409:8087:1e03:21::2]:6060/cms001/ch00000090990000001239/index.m3u8
CCTV13,http://[2409:8087:1e03:21::2]:6060/cms001/ch00000090990000001328/index.m3u8
CCTV14,http://[2409:8087:1e03:21::2]:6060/cms001/ch00000090990000001240/index.m3u8
CCTV15,http://[2409:8087:1e03:21::2]:6060/cms001/ch00000090990000001338/index.m3u8
CCTV16,http://[2409:8087:1e03:21::2]:6060/cms001/ch00000090990000001248/index.m3u8
CCTV17,http://[2409:8087:1e03:21::2]:6060/cms001/ch00000090990000001241/index.m3u8
CCTV16,http://[2409:8087:1e03:21::2]:6060/cms001/ch00000090990000001258/index.m3u8
CCTV8K,http://[2409:8087:2001:20:2800:0:df6e:eb02]:80/wh7f454c46tw2749731958_105918260/ott.mobaibox.com/PLTV/3/224/3221228165/index.m3u8?icpid=3&RTS=1681529690&from=40&popid=40&hms_devid=2039&prioritypopid=40&vqe=3

4K,#genre#
CCTV4K,http://[2409:8087:2001:20:2800:0:df6e:eb13]/ott.mobaibox.com/PLTV/3/224/3221228228/index.m3u8
CCTV4K,http://[2409:8087:2001:20:2800:0:df6e:eb26]:80/ott.mobaibox.com/PLTV/3/224/3221228472/index.m3u8
CCTV4K,http://[2409:8087:2001:20:2800:0:df6e:eb12]/wh7f454c46tw4259108076_496521789/ott.mobaibox.com/PLTV/3/224/3221228228/index.m3u8
CCTV4K,http://cfss.cc/api/ysp/cctv4k.m3u8
CCTV4K,http://liveop.cctv.cn/hls/4KHD/playlist.m3u8   
CCTV4K,http://liveop.cctv.cn/hls/4KHD/playlist.m3u8?zzhongd
CCTV4K,http://193.233.206.48/电视直播源分享群-212710857.php?/PLTV/&auth=231018&ip=&id=cctv4k
CCTV8K,http://[2409:8087:2001:20:2800:0:df6e:eb02]/ott.mobaibox.com/PLTV/3/224/3221228165/index.m3u8
CCTV8K,http://us-sjc-bgp-2.openfrp.top:10180/test/test/cctv8k.php
CCTV16,http://[2409:8087:2001:20:2800:0:df6e:eb18]/ott.mobaibox.com/PLTV/3/224/3221228127/index.m3u8
CCTV16,http://193.233.206.48/电视直播源分享群-212710857.php?/PLTV/&auth=231018&ip=&id=cctv164k
纯享4K,http://[2409:8087:2001:20:2800:0:df6e:eb11]/ott.mobaibox.com/PLTV/3/224/3221228242/index.m3u8
爱上4K,http://[2409:8087:5e01:34::23]:6610/ZTE_CMS/00000001000000060000000000000459/index.m3u8?IAS
4K超高清电影,http://159.75.85.63:5681/sxg.php

少儿,#genre#
倒霉特熊,https://newcntv.qcloudcdn.com/asp/hls/1200/0303000a/3/default/87f87ba569c147e3805f80e4844d2de9/1200.m3u8
反转星球,https://newcntv.qcloudcdn.com/asp/hls/1200/0303000a/3/default/3ccdecc7d6e341c1920ad4eac5d82f38/1200.m3u8
南京少儿,http://live.nbs.cn/channels/njtv/sepd/500k.m3u8?zjiangsd
南京少儿,http://live.nbs.cn/channels/njtv/sepd/m3u8:500k/live.m3u8
狮子王国,https://newcntv.qcloudcdn.com/asp/hls/850/0303000a/3/default/c2e7e767f3144bed959ef20b8b961fe5/850.m3u8
熊大过年,https://newcntv.qcloudcdn.com/asp/hls/1200/0303000a/3/default/7ae265653fe149069c3b53e31caaf060/1200.m3u8
熊大熊二,https://newcntv.qcloudcdn.com/asp/hls/1200/0303000a/3/default/1733da751de64e6e910abda889d87a26/1200.m3u8
云朵妈妈,https://newcntv.qcloudcdn.com/asp/hls/1200/0303000a/3/default/d8ad434c6b08421a927557a4d98da65c/1200.m3u8
浙江少儿,http://hw-m-l.cztv.com/channels/lantian/channel008/1080p.m3u8?zzhed
浙江少儿,http://hw-m-l.cztv.com/channels/lantian/channel08/360p.m3u8?zzhed
浙江少儿,http://hw-m-l.cztv.com/channels/lantian/channel08/720p.m3u8?zzhed
浙江少儿,http://hw-m-l.cztv.com/channels/lantian/channel08/1080p.m3u8?k=1a7559a51eeb880b021619a07f463ac4&t=1577153787
卡酷少儿,http://193.233.206.48/电视直播源分享群-212710857.php?/PLTV/&auth=231018&ip=&id=kkse
金鹰卡通,http://193.233.206.48/电视直播源分享群-212710857.php?/PLTV/&auth=231018&ip=&id=jykt
哈哈炫动,http://193.233.206.48/电视直播源分享群-212710857.php?/PLTV/&auth=231018&ip=&id=hhxd
嘉佳卡通,http://193.233.206.48/电视直播源分享群-212710857.php?/PLTV/&auth=231018&ip=&id=jjkt