综合,#genre#
CCTV13新闻,https://live-play.cctvnews.cctv.com/cctv/merge_cctv13.m3u8
CCTV1,http://124.222.142.65:5678/zhibo/index.php?id=cctv1
CCTV2,http://124.222.142.65:5678/zhibo/index.php?id=cctv2
CCTV3,http://124.222.142.65:5678/zhibo/index.php?id=cctv3
CCTV4,http://124.222.142.65:5678/zhibo/index.php?id=cctv4
CCTV5,http://124.222.142.65:5678/zhibo/index.php?id=cctv5
CCTV6,http://124.222.142.65:5678/zhibo/index.php?id=cctv6
CCTV7,http://124.222.142.65:5678/zhibo/index.php?id=cctv7
CCTV8,http://124.222.142.65:5678/zhibo/index.php?id=cctv8
CCTV9,http://124.222.142.65:5678/zhibo/index.php?id=cctv9
CCTV10,http://124.222.142.65:5678/zhibo/index.php?id=cctv10
CCTV11,http://124.222.142.65:5678/zhibo/index.php?id=cctv11
CCTV12,http://124.222.142.65:5678/zhibo/index.php?id=cctv12
CCTV13,http://124.222.142.65:5678/zhibo/index.php?id=cctv13
CCTV14,http://124.222.142.65:5678/zhibo/index.php?id=cctv14
CCTV15,http://124.222.142.65:5678/zhibo/index.php?id=cctv15
CCTV17,http://124.222.142.65:5678/zhibo/index.php?id=cctv17
CCTV5+,http://124.222.142.65:5678/zhibo/index.php?id=cctv5p

CCTV1,http://39.134.66.66/PLTV/88888888/224/3221225816/index.m3u8
CCTV1,http://39.134.66.66/PLTV/88888888/224/3221225706/index.m3u8
CCTV2,http://39.134.66.66/PLTV/88888888/224/3221225599/index.m3u8
CCTV3,http://39.134.66.66/PLTV/88888888/224/3221225799/index.m3u8
CCTV4,http://39.134.66.66/PLTV/88888888/224/3221225797/index.m3u8
CCTV5,http://39.134.66.66/PLTV/88888888/224/3221225818/index.m3u8
CCTV5+,http://39.134.66.66/PLTV/88888888/224/3221225507/index.m3u8
CCTV6,http://39.134.66.66/PLTV/88888888/224/3221225814/index.m3u8
CCTV7,http://39.134.66.66/PLTV/88888888/224/3221225671/index.m3u8
CCTV8,http://39.134.66.66/PLTV/88888888/224/3221225795/index.m3u8
CCTV9,http://39.134.66.66/PLTV/88888888/224/3221225676/index.m3u8
CCTV10,http://39.134.66.66/PLTV/88888888/224/3221225677/index.m3u8
CCTV11,http://39.134.66.66/PLTV/88888888/224/3221225517/index.m3u8
CCTV12,http://39.134.66.66/PLTV/88888888/224/3221225669/index.m3u8
CCTV13,http://39.134.66.66/PLTV/88888888/224/3221225812/index.m3u8
CCTV14,http://39.134.66.66/PLTV/88888888/224/3221225674/index.m3u8
CCTV15,http://39.134.66.66/PLTV/88888888/224/3221225513/index.m3u8
CCTV17,http://39.134.66.66/PLTV/88888888/224/3221225708/index.m3u8

IPV6,#genre#
CCTV-1 综合,http://[2409:8087:1e03:21::2]:6060/cms001/ch00000090990000001022/index.m3u8
CCTV-2 财经,http://[2409:8087:1e03:21::2]:6060/cms001/ch00000090990000001220/index.m3u8
CCTV-3 综艺,http://[2409:8087:1e03:21::2]:6060/cms001/ch00000090990000001186/index.m3u8
CCTV-4 中文国际,http://[2409:8087:1e03:21::2]:6060/cms001/ch00000090990000001221/index.m3u8
CCTV-5 体育,http://[2409:8087:1e03:21::2]:6060/cms001/ch00000090990000001187/index.m3u8
CCTV-5+ 体育赛事,http://[2409:8087:7000:20:1000::22]:6060/yinhe/2/ch00000090990000001334/index.m3u8?virtualDomain=yinhe.live_hls.zte.com
CCTV-6 电影,http://[2409:8087:1e03:21::2]:6060/cms001/ch00000090990000001188/index.m3u8
CCTV-7 国防军事,http://[2409:8087:1e03:21::2]:6060/cms001/ch00000090990000001236/index.m3u8
CCTV-8 电视剧,http://[2409:8087:1e03:21::2]:6060/cms001/ch00000090990000001189/index.m3u8
CCTV-9 纪录,http://[2409:8087:1e03:21::2]:6060/cms001/ch00000090990000001237/index.m3u8
CCTV-10 科教,http://[2409:8087:1e03:21::2]:6060/cms001/ch00000090990000001238/index.m3u8
CCTV-11 戏曲,http://[2409:8087:1e03:21::2]:6060/cms001/ch00000090990000001309/index.m3u8
CCTV-12 社会与法,http://[2409:8087:1e03:21::2]:6060/cms001/ch00000090990000001239/index.m3u8
CCTV-13 新闻,http://[2409:8087:1e03:21::2]:6060/cms001/ch00000090990000001328/index.m3u8
CCTV-14 少儿,http://[2409:8087:1e03:21::2]:6060/cms001/ch00000090990000001240/index.m3u8
CCTV-15 音乐,http://[2409:8087:1e03:21::2]:6060/cms001/ch00000090990000001338/index.m3u8
CCTV-16 奥林匹克,http://[2409:8087:1e03:21::2]:6060/cms001/ch00000090990000001248/index.m3u8
CCTV-17 农业农村,http://[2409:8087:1e03:21::2]:6060/cms001/ch00000090990000001241/index.m3u8
CCTV-16 奥林匹克 4K,http://[2409:8087:1e03:21::2]:6060/cms001/ch00000090990000001258/index.m3u8
CCTV-4K 超高清,http://[2409:8087:2001:20:2800:0:df6e:eb26]:80/ott.mobaibox.com/PLTV/3/224/3221228472/index.m3u8
CCTV-8K 超高清,http://[2409:8087:2001:20:2800:0:df6e:eb02]:80/wh7f454c46tw2749731958_105918260/ott.mobaibox.com/PLTV/3/224/3221228165/index.m3u8?icpid=3&RTS=1681529690&from=40&popid=40&hms_devid=2039&prioritypopid=40&vqe=3